
<svg version="1.0" xmlns="http://www.w3.org/2000/svg"
 viewBox="0 0 980.000000 992.000000"
 preserveAspectRatio="xMidYMid meet">

<g transform="translate(0.000000,992.000000) scale(0.100000,-0.100000)"
fill="#000000" stroke="none">
<path d="M4635 9909 c-89 -12 -237 -51 -323 -86 -37 -14 -798 -401 -1692 -858
-894 -458 -1686 -863 -1760 -900 -343 -175 -557 -376 -702 -662 -65 -126 -100
-224 -130 -360 -31 -142 -31 -424 0 -569 51 -239 172 -501 307 -669 55 -69
678 -861 1195 -1520 1551 -1977 1903 -2431 1935 -2496 107 -212 105 -456 -5
-667 -116 -223 -321 -364 -571 -392 -293 -33 -571 108 -714 364 -61 110 -87
206 -93 341 -5 144 15 245 75 364 45 89 156 212 243 267 33 22 58 44 56 50 -3
7 -100 135 -217 285 -117 151 -214 276 -215 278 -7 9 -147 -101 -228 -179
-202 -194 -346 -453 -407 -730 -54 -251 -41 -524 37 -767 36 -114 135 -306
204 -398 224 -299 535 -496 910 -576 87 -19 136 -23 280 -23 195 1 304 18 467
75 144 50 260 117 843 485 305 193 832 526 1170 739 338 213 822 519 1075 678
1311 827 1199 753 1323 878 181 182 301 392 367 642 106 403 17 827 -251 1192
l-47 63 -86 -43 c-115 -57 -187 -87 -306 -125 -102 -32 -263 -70 -302 -70 -12
0 -24 -4 -27 -8 -2 -4 49 -74 114 -155 172 -214 220 -325 220 -508 0 -266
-132 -463 -440 -656 -80 -50 -332 -209 -560 -353 -228 -144 -786 -497 -1240
-783 -454 -286 -835 -526 -847 -534 -21 -14 -22 -13 -27 44 -27 257 -103 483
-229 675 -29 46 -312 412 -627 813 -913 1162 -2388 3042 -2463 3140 -154 201
-217 359 -217 550 0 113 20 198 70 300 74 151 196 273 345 345 117 57 191 74
315 73 130 -1 219 -21 330 -75 69 -34 103 -60 176 -133 78 -77 98 -104 137
-185 25 -52 53 -123 62 -158 77 -303 -38 -612 -290 -781 l-74 -49 220 -284
c121 -155 227 -282 234 -282 28 3 3372 1899 3431 1946 244 191 426 493 491
815 28 137 25 405 -6 542 -121 548 -531 956 -1076 1073 -106 22 -354 32 -460
17z m392 -744 c197 -62 351 -220 420 -430 22 -69 26 -98 27 -205 0 -112 -3
-134 -28 -205 -15 -44 -43 -105 -61 -135 -34 -55 -134 -160 -190 -197 -36 -24
-2274 -1293 -2280 -1293 -3 0 -5 36 -5 79 0 98 -30 279 -66 391 -87 276 -278
547 -508 720 -47 36 -86 67 -86 70 0 3 526 274 1168 602 1116 571 1205 614
1317 632 70 11 211 -3 292 -29z"/>
<path d="M9425 9034 c-328 -40 -641 -130 -935 -271 -204 -97 -285 -148 -321
-200 -73 -106 -186 -397 -219 -563 -7 -36 -16 -69 -21 -74 -8 -10 -42 99 -58
188 -13 73 -14 237 -1 291 5 22 8 41 6 42 -5 5 -254 -141 -366 -214 -135 -89
-307 -215 -440 -324 -95 -77 -95 -77 -132 -171 -75 -190 -115 -399 -125 -647
-7 -189 -5 -189 -83 -26 -57 118 -89 236 -97 358 l-6 88 -64 -63 c-96 -93
-259 -291 -338 -409 -141 -211 -241 -437 -287 -653 -25 -120 -31 -388 -9 -495
18 -94 58 -225 93 -308 l30 -74 177 173 c281 276 573 531 806 703 174 129 179
131 89 25 -481 -568 -987 -1324 -1447 -2165 -136 -250 -190 -355 -181 -355 21
0 521 163 530 173 7 7 65 107 129 222 152 274 298 517 410 685 l90 134 155 2
c105 0 181 6 235 18 371 80 736 315 1078 694 94 104 257 303 257 314 0 2 -44
2 -97 0 -153 -6 -403 41 -510 96 l-35 18 109 13 c253 28 516 100 694 189 l94
47 66 105 c105 166 214 360 316 560 l94 185 -178 6 c-160 6 -293 23 -378 48
l-30 8 40 8 c82 14 303 75 385 105 103 38 255 110 292 140 59 46 218 339 317
582 90 223 198 580 234 776 l7 32 -128 -1 c-70 -1 -181 -8 -247 -15z"/>
<path d="M4087 5247 c-592 -348 -1077 -635 -1077 -639 0 -4 72 -107 161 -228
150 -206 162 -219 182 -209 22 12 816 476 1392 814 171 100 409 240 530 310
121 71 224 132 229 136 7 6 -310 429 -332 443 -4 2 -492 -280 -1085 -627z"/>
<path d="M4438 4136 c-405 -237 -737 -434 -738 -438 0 -9 319 -448 326 -448 3
0 73 40 157 89 84 49 237 139 341 200 l190 111 234 456 c128 251 232 457 230
459 -2 1 -335 -192 -740 -429z"/>
</g>
</svg>
